<svg xmlns="http://www.w3.org/2000/svg" xmlns:xlink="http://www.w3.org/1999/xlink" width="13" height="11"
     viewBox="0 0 13 11">
    <defs>
        <path id="5k7ya" d="M1151.54 1516.11h9.74l-4.88-3.76.73-.94 6.87 5.3-6.87 5.29-.73-.94 4.88-3.76h-9.74z"/>
    </defs>
    <g>
        <g transform="translate(-1151 -1511)">
            <use fill="#fff" xlink:href="#5k7ya"/>
        </g>
    </g>
</svg>
