<?xml version="1.0" encoding="utf-8"?>
<!-- Generator: Adobe Illustrator 24.0.2, SVG Export Plug-In . SVG Version: 6.00 Build 0)  -->
<svg version="1.1" id="Layer_1" xmlns="http://www.w3.org/2000/svg" xmlns:xlink="http://www.w3.org/1999/xlink" x="0px"
     y="0px"
     viewBox="0 0 13 11" style="enable-background:new 0 0 13 11;" xml:space="preserve">
<style type="text/css">
	.st0{fill:#FFFFFF;}
</style>
    <g>
	<g transform="translate(-1151 -1511)">
		<g>
			<path id="_x35_k7ya" class="st0"
                  d="M1164,1517.3h-9.7l4.9,3.8l-0.7,0.9l-6.9-5.3l6.9-5.3l0.7,0.9l-4.9,3.8h9.7V1517.3z"/>
		</g>
	</g>
</g>
</svg>
